{
  "project_info": {
    "project_number": "1080274252088",
    "firebase_url": "https://uolthasappv2.firebaseio.com",
    "project_id": "uolthasappv2",
    "storage_bucket": "uolthasappv2.appspot.com"
  },
  "client": [
    {
      "client_info": {
        "mobilesdk_app_id": "1:1080274252088:android:e7a3e9a8dbde210bec51cd",
        "android_client_info": {
          "package_name": "com.example.uolthasapp"
        }
      },
      "oauth_client": [
        {
          "client_id": "1080274252088-b9d6dh33o8itg02b9dse4fllpabfegpe.apps.googleusercontent.com",
          "client_type": 3
        }
      ],
      "api_key": [
        {
          "current_key": "AIzaSyBn4J-vzv_ORSrovCS9Sx1Zi4tCTYVoszo"
        }
      ],
      "services": {
        "appinvite_service": {
          "other_platform_oauth_client": [
            {
              "client_id": "1080274252088-b9d6dh33o8itg02b9dse4fllpabfegpe.apps.googleusercontent.com",
              "client_type": 3
            }
          ]
        }
      }
    }
  ],
  "configuration_version": "1"
}